\relax 
\providecommand\HyperFirstAtBeginDocument{\AtBeginDocument}
\HyperFirstAtBeginDocument{\ifx\hyper@anchor\@undefined
\global\let\oldcontentsline\contentsline
\gdef\contentsline#1#2#3#4{\oldcontentsline{#1}{#2}{#3}}
\global\let\oldnewlabel\newlabel
\gdef\newlabel#1#2{\newlabelxx{#1}#2}
\gdef\newlabelxx#1#2#3#4#5#6{\oldnewlabel{#1}{{#2}{#3}}}
\AtEndDocument{\ifx\hyper@anchor\@undefined
\let\contentsline\oldcontentsline
\let\newlabel\oldnewlabel
\fi}
\fi}
\global\let\hyper@last\relax 
\gdef\HyperFirstAtBeginDocument#1{#1}
\providecommand\HyField@AuxAddToFields[1]{}
\providecommand\HyField@AuxAddToCoFields[2]{}
\babel@aux{nil}{}
\@writefile{toc}{\contentsline {chapter}{\numberline {1}Fazi Skupovi}{1}{chapter.2}\protected@file@percent }
\@writefile{lof}{\addvspace {10\p@ }}
\@writefile{lot}{\addvspace {10\p@ }}
\@writefile{toc}{\contentsline {section}{\numberline {1.1}Istorija fazi skupova}{1}{section.3}\protected@file@percent }
\@writefile{toc}{\contentsline {section}{\numberline {1.2}Osnove fazi skupova}{2}{section.4}\protected@file@percent }
\@writefile{toc}{\contentsline {section}{\numberline {1.3} Vrste karakteristi\IeC {\v c}nih funkcija }{3}{section.15}\protected@file@percent }
\@writefile{toc}{\contentsline {subsection}{\numberline {1.3.1}Trougaona karakteristi\IeC {\v c}na funkcija}{3}{subsection.16}\protected@file@percent }
\@writefile{toc}{\contentsline {subsection}{\numberline {1.3.2}Trapezoidna karakteristi\IeC {\v c}na funkcija}{3}{subsection.18}\protected@file@percent }
\@writefile{toc}{\contentsline {subsection}{\numberline {1.3.3}Gausova karakteristi\IeC {\v c}na funkcija}{4}{subsection.20}\protected@file@percent }
\@writefile{toc}{\contentsline {chapter}{\numberline {2}Fazi logika}{5}{chapter.22}\protected@file@percent }
\@writefile{lof}{\addvspace {10\p@ }}
\@writefile{lot}{\addvspace {10\p@ }}
\@writefile{toc}{\contentsline {section}{\numberline {2.1}Osobine fazi logike}{5}{section.23}\protected@file@percent }
\@writefile{toc}{\contentsline {section}{\numberline {2.2}Vi\IeC {\v s}evrednosna logika}{6}{section.28}\protected@file@percent }
